[
Class ("DemoClass",
        [],
        [Method ("int","testmethod",[("int","x"),("int","y")],Block [LocalVarDecl ("int","z"),StmtExprStmt (Assign (LocalOrFieldVar "z",Binary ("+",LocalOrFieldVar "y",Binary ("*",Integer 1,LocalOrFieldVar "x")))),If (Binary ("==",LocalOrFieldVar "x",Integer 1),Block [Return (Integer 1)],Just (Block [If (Binary ("<=",LocalOrFieldVar "x",Integer 20),Block [Return (Integer 2)],Nothing)])),Return (LocalOrFieldVar "z")])]),
Class ("SndClass",
        [FieldDecl ("int","a"),
          FieldDecl ("int","b")],
        [])]
